{
    "openapi": "3.0.0",
    "info": {
        "title": "My First API",
        "version": "0.1"
    },
    "paths": {
        "/api/": {},
        "/api/note": {
            "get": {
                "tags": [
                    "Note"
                ],
                "summary": "Выбор записей пользователя",
                "operationId": "32960b4284eebac4779464b12f4e3953",
                "parameters": [
                    {
                        "name": "user_id",
                        "in": "query",
                        "description": "id пользователя",
                        "required": false,
                        "schema": {
                            "type": "integer"
                        }
                    }
                ],
                "responses": {
                    "200": {
                        "description": "successful operation",
                        "content": {
                            "application/json": {
                                "schema": {},
                                "examples": {
                                    "result": {
                                        "summary": "An result object.",
                                        "value": {
                                            "success": true,
                                            "data": [
                                                {
                                                    "id": 113,
                                                    "text": "some random text 222",
                                                    "user_id": 2,
                                                    "created_at": "2023-11-15T16:57:47.000000Z",
                                                    "updated_at": "2023-11-15T16:57:47.000000Z",
                                                    "deleted_at": null
                                                }
                                            ],
                                            "message": ""
                                        }
                                    }
                                }
                            }
                        }
                    }
                },
                "security": [
                    {
                        "bearerAuth": []
                    }
                ]
            },
            "post": {
                "tags": [
                    "Note"
                ],
                "summary": "Добавление записи",
                "operationId": "b741bed8fd52ae671b294eebe53118de",
                "requestBody": {
                    "content": {
                        "application/json": {
                            "schema": {
                                "properties": {
                                    "text": {
                                        "type": "string"
                                    },
                                    "user_id": {
                                        "type": "integer"
                                    }
                                },
                                "type": "object",
                                "example": {
                                    "text": "some random text 222",
                                    "user_id": 3
                                }
                            }
                        }
                    }
                },
                "responses": {
                    "200": {
                        "description": "successful operation",
                        "content": {
                            "application/json": {
                                "schema": {},
                                "examples": {
                                    "result": {
                                        "summary": "An result object.",
                                        "value": {
                                            "success": true,
                                            "data": {
                                                "text": "some random text 222",
                                                "user_id": 1,
                                                "updated_at": "2023-11-16T20:11:31.000000Z",
                                                "created_at": "2023-11-16T20:11:31.000000Z",
                                                "id": 127
                                            },
                                            "message": "note created"
                                        }
                                    }
                                }
                            }
                        }
                    }
                },
                "security": [
                    {
                        "bearerAuth": []
                    }
                ]
            }
        },
        "/api/note/{id}": {
            "put": {
                "tags": [
                    "Note"
                ],
                "summary": "Обновление записи",
                "operationId": "f2ea6dbdbb346a1001a4e30bbef07c9a",
                "parameters": [
                    {
                        "name": "id",
                        "in": "path",
                        "description": "Id note",
                        "required": true,
                        "schema": {
                            "type": "integer"
                        }
                    }
                ],
                "requestBody": {
                    "content": {
                        "application/json": {
                            "schema": {
                                "properties": {
                                    "text": {
                                        "type": "string"
                                    }
                                },
                                "type": "object",
                                "example": {
                                    "text": "a3fb6"
                                }
                            }
                        }
                    }
                },
                "responses": {
                    "200": {
                        "description": "OK",
                        "content": {
                            "application/json": {
                                "schema": {},
                                "examples": {
                                    "result": {
                                        "summary": "An result object.",
                                        "value": {
                                            "success": true,
                                            "data": {
                                                "id": 10,
                                                "text": "ne dushi",
                                                "user_id": 3,
                                                "created_at": "2023-11-15T14:18:28.000000Z",
                                                "updated_at": "2023-11-16T18:13:40.000000Z",
                                                "deleted_at": null
                                            },
                                            "message": "Note success update"
                                        }
                                    }
                                }
                            }
                        }
                    }
                },
                "security": [
                    {
                        "bearerAuth": []
                    }
                ]
            },
            "delete": {
                "tags": [
                    "Note"
                ],
                "summary": "Удаление записи",
                "operationId": "1d3ee1ba0e84b827eb6070b4dd42c220",
                "parameters": [
                    {
                        "name": "id",
                        "in": "path",
                        "description": "Id note",
                        "required": true,
                        "schema": {
                            "type": "integer"
                        }
                    }
                ],
                "responses": {
                    "200": {
                        "description": "OK",
                        "content": {
                            "application/json": {
                                "schema": {},
                                "examples": {
                                    "result": {
                                        "summary": "An result object.",
                                        "value": {
                                            "success": true,
                                            "data": [],
                                            "message": "Note deleted"
                                        }
                                    }
                                }
                            }
                        }
                    }
                },
                "security": [
                    {
                        "bearerAuth": []
                    }
                ]
            }
        },
        "/api/register": {
            "post": {
                "tags": [
                    "User"
                ],
                "summary": "Register",
                "operationId": "d81731c4ae6f1025ba49e06610ad7a4d",
                "requestBody": {
                    "content": {
                        "application/json": {
                            "schema": {
                                "properties": {
                                    "email": {
                                        "type": "string"
                                    },
                                    "password": {
                                        "type": "string"
                                    }
                                },
                                "type": "object",
                                "example": {
                                    "email": "admin@larav.el",
                                    "password": "password"
                                }
                            }
                        }
                    }
                },
                "responses": {
                    "200": {
                        "description": "successful operation",
                        "content": {
                            "application/json": {
                                "schema": {},
                                "examples": {
                                    "result": {
                                        "summary": "An result object.",
                                        "value": {
                                            "success": true,
                                            "data": {
                                                "token": "api_token"
                                            },
                                            "message": "Login success"
                                        }
                                    }
                                }
                            }
                        }
                    }
                }
            }
        },
        "/api/login": {
            "post": {
                "tags": [
                    "User"
                ],
                "summary": "Login",
                "operationId": "1bcc1ad206cf55b9bda210f56a8a0bc7",
                "requestBody": {
                    "content": {
                        "application/json": {
                            "schema": {
                                "properties": {
                                    "name": {
                                        "type": "string"
                                    },
                                    "email": {
                                        "type": "string"
                                    },
                                    "password": {
                                        "type": "string"
                                    }
                                },
                                "type": "object",
                                "example": {
                                    "email": "admin@larav.el",
                                    "password": "password"
                                }
                            }
                        }
                    }
                },
                "responses": {
                    "200": {
                        "description": "successful operation",
                        "content": {
                            "application/json": {
                                "schema": {},
                                "examples": {
                                    "result": {
                                        "summary": "An result object.",
                                        "value": {
                                            "success": true,
                                            "data": {
                                                "token": "api_token"
                                            },
                                            "message": "Login success"
                                        }
                                    }
                                }
                            }
                        }
                    }
                }
            }
        },
        "/api/users": {
            "get": {
                "tags": [
                    "User"
                ],
                "summary": "Выбор всех пользователей",
                "operationId": "29fef6b534394802c9b241983d1b9c72",
                "responses": {
                    "200": {
                        "description": "successful operation",
                        "content": {
                            "application/json": {
                                "schema": {},
                                "examples": {
                                    "result": {
                                        "summary": "An result object.",
                                        "value": {
                                            "success": true,
                                            "data": {
                                                "token": "api_token"
                                            },
                                            "message": "Login success"
                                        }
                                    }
                                }
                            }
                        }
                    }
                },
                "security": [
                    {
                        "bearerAuth": []
                    }
                ]
            }
        }
    },
    "components": {
        "securitySchemes": {
            "bearerAuth": {
                "type": "http",
                "scheme": "bearer"
            }
        }
    }
}